^D:\MYOWNPROJECTS\C++\SFMLPROJECT1\SFMLPROJECT1\X64\RELEASE\WINDOW.OBJ
D:\MYOWNPROJECTS\C++\SFMLPROJECT1\X64\RELEASE\SFMLPROJECT1.EXE
D:\MYOWNPROJECTS\C++\SFMLPROJECT1\X64\RELEASE\SFMLPROJECT1.PDB
