^D:\myOwnProjects\C++\SFMLProject1\SFMLProject1\SFMLProject1.vcxproj
D:\myOwnProjects\C++\SFMLProject1\x64\Release\SFMLProject1.ipdb
D:\myOwnProjects\C++\SFMLProject1\x64\Release\SFMLProject1.iobj
^D:\myOwnProjects\C++\SFMLProject1\SFMLProject1\SFMLProject1.vcxproj
D:\myOwnProjects\C++\SFMLProject1\x64\Release\SFMLProject1.ipdb
D:\myOwnProjects\C++\SFMLProject1\x64\Release\SFMLProject1.iobj
^D:\myOwnProjects\C++\SFMLProject1\SFMLProject1\SFMLProject1.vcxproj
D:\myOwnProjects\C++\SFMLProject1\x64\Release\SFMLProject1.ipdb
D:\myOwnProjects\C++\SFMLProject1\x64\Release\SFMLProject1.iobj
^D:\myOwnProjects\C++\SFMLProject1\SFMLProject1\SFMLProject1.vcxproj
D:\myOwnProjects\C++\SFMLProject1\x64\Release\SFMLProject1.ipdb
D:\myOwnProjects\C++\SFMLProject1\x64\Release\SFMLProject1.iobj
^D:\myOwnProjects\C++\SFMLProject1\SFMLProject1\SFMLProject1.vcxproj
D:\myOwnProjects\C++\SFMLProject1\x64\Release\SFMLProject1.ipdb
D:\myOwnProjects\C++\SFMLProject1\x64\Release\SFMLProject1.iobj
